{
  "type": "service_account",
  "project_id": "fastshipping-car",
  "private_key_id": "e34fcf32c1cddffecefba404cfd96299c65757b3",
  "private_key": "-----BEGIN PRIVATE KEY-----\nMIIEvQIBADANBgkqhkiG9w0BAQEFAASCBKcwggSjAgEAAoIBAQC5i3i8nTYb3kxm\n+XSiMXzirRtNsivSxvoOlD3a0qopkd4wWhVXR/BwHcS8AJMpmdIfpbW6Xih4pYLJ\nfqLksQHWK18ntlnYb0J0VK5gyv4d66yBhprN2o9gEbQ/CqxtbSzc4as9/WKUgxQz\nfrqmA2HcgU6eva9QiKzEY2P5C3fYiXDJvkmymtaxUEt4LjvbK28CcMaZ1Ra6uVFo\nRmzvNxRa4b5FE4J+gdfjLxz12EcMx7QCu0bREUvS1aPE5g9nd5LeNVwT7eNSzY4O\nF8/cp5b4rYMa8jXNYIEVfB3D/GNSx42z19YyhFfTXYh1XkrR1l/6KnM+bZsyv3aV\ngs0iojCPAgMBAAECggEAA3nmoK4CAgKnrsmJ/bHsqOMyXuxxdWj57VpUpawLDm1S\nWtiNNs3nu3SrUhRhWBxZe0ijqiKyd77Yv5qqRZuVW7mt9jSsjpQDDDfmmR9PJH4H\nr4OMlJe9gOtuqOcJH6G11KDmZZUWNY8WdU0wr683iaXjNFvRvtyt/p3tamXkcGpB\nNBgYBdNzudrDtSi3cqzvLXuxU1x996+RVhE3rpDZ70W/L0OyQK0MMvM/q3YAhAIW\nn1LJSI8q6gOX/qZvM9uEbUp1o41VL+GU75bEjH4ArjKAzwuIf+cwAcwdNH2YJYDr\nBNF26715cB/42a/Vum8TFD4ZTJ3gsoUY1/OQzxgR7QKBgQD6GRPucQjGmzMxvHh5\nPTv8k6Ml4sPw2Q7iQ53OxBaAooAF4YOZQY/91qMVUL10fEVEq/FJIU+1u6asvVKJ\nN8YC8XHsSNkSx3q3UhCN6sKI4RqnqgTFg7QXAnJ8eE8fjYzVuDltJk/3kYIZkUTu\nQZTARL7I2IMReNFDdYrpECNTrQKBgQC97GhO1R9X/SF3S4T7+eg/7JbDay1dlSy0\nph/TjeDqbekLQ6byTLFzvyut19aLZTCbdGFErWdHGggCRbknZe0z4OcauVSHu+q7\nhlUjLA4GBfO82fk+gUS9i8RfqqeJhvHYHJl+3MsVG6bCDF60Y5wKHX4/dqnNt7/W\nZyeDVLf8qwKBgE4PG7h1UT7j2/OvFo8IvLtVvTsq7usyZEHcxtltPHTDw1+ShoeD\n/hRFNLuHasp7qwcG/5VKr11Sh3As2yD25neuslcEWbRRzIyBMaeJ2VPtpmskVr7r\nH397BQ6yYke/33ApQss9hQIJSWj/fVs73tiv3DhF04rVgcMjYcrifZQ1AoGBAKVd\nvWi+ir8LKWN8vvrDGyTltFPM80Ajjjxw1Q9X3rlgH+Tt7+PTQUM99iM05pqS7eK9\nT6ADuAQht017Nf8G8aUVM0SCkAZrabQEAAdS6Zb3AcWyqSFyXs8HbmG57oyBkfwQ\n0tmyF6V2YRleuespPAlWqsFJagoz7vYY9T+VuWlnAoGANHceNyd9aWJFJu3Rc4Md\nL8U/PW2tfq1At2a8HcCyne7kZ8JvHn4uo9zk0LUmu0clO7OM4x6HfmXud9ZsY3ja\n2SK/mAsDxaO0ieYpeHAtWF+0l6iGbGEdNU9ipPIwSJ7Pvi49oEH0Oj45nNeeBjmN\n2JdwGgL+WhcFsfyvulVjOAM=\n-----END PRIVATE KEY-----\n",
  "client_email": "firebase-adminsdk-akhqz@fastshipping-car.iam.gserviceaccount.com",
  "client_id": "109370218176283758506",
  "auth_uri": "https://accounts.google.com/o/oauth2/auth",
  "token_uri": "https://oauth2.googleapis.com/token",
  "auth_provider_x509_cert_url": "https://www.googleapis.com/oauth2/v1/certs",
  "client_x509_cert_url": "https://www.googleapis.com/robot/v1/metadata/x509/firebase-adminsdk-akhqz%40fastshipping-car.iam.gserviceaccount.com"
}
